NAME,INERTIA_X,INERTIA_Y,INERTIA_Z,DIPOLE_X,DIPOLE_Y,DIPOLE_Z,SURFACE_AREA,VOLUME,CHARGE_GINI,CURVATURE_GINI,ROUNDNESS
Q58FG1,70178.7,473162,465931,134.172,-3.33527,-119.666,377.103,40.4035,0.308912,0.796025
P29622,200980,174800,97823.6,-10.9278,-13.5939,-1.67657,373.738,41.7501,0.178929,0.746176
P68104,125901,215598,171898,-28.7215,86.2788,34.8055,396.735,43.6152,0.25017,0.785379
P01344,22515.1,36534.8,33753.4,9.00794,-14.1724,-13.2499,155.386,17.0979,0.175613,0.774428
Q14656,45871,84155.2,88140.7,9.40408,3.38261,-4.93904,225.35,24.7958,0.223749,0.772991
Q86TB9,1.04689e+06,679901,729736,129.514,46.75,-27.2012,689.207,74.0782,0.580901,0.809749
Q2TAK8,272416,2.6792e+06,2.81706e+06,-20.5968,131.559,118.717,646.676,63.6084,0.504087,0.816746
P05156,384610,428642,154542,15.3426,16.1109,20.2796,516.09,56.7233,0.253486,0.776793
P10643,330906,3.01252e+06,3.09101e+06,-23.3428,18.3797,-9.05969,744.902,79.5594,0.424572,0.796891
Q15166,102251,80338.3,108769,29.0266,-16.9633,35.8135,309.516,33.6202,0.17646,0.776366
P11142,529906,250620,492711,-10.1675,-8.21726,-19.0256,558.191,60.779,0.261237,0.785424
Q9UK55,105489,198860,211801,-1.35191,-24.6297,-1.86033,393.77,42.5986,0.18338,0.767494
P04433,19909.4,9327.68,17836.1,0.689,-1.83399,-3.06912,100.169,10.9,0.220782,0.786085
B1ANY3,51221.3,85062.6,81516.6,0.153432,-2.49392,7.50436,234.051,25.473,0.213221,0.7706
P14136,49727.7,816772,805182,-31.6196,5.0452,-11.2289,385.214,43.0309,0.31442,0.84949
O14983,1.47001e+06,331037,1.34663e+06,51.499,65.1988,-24.2971,874.605,96.469,0.302357,0.763937
P26927,514522,274686,603458,-30.6071,12.5652,-0.529721,623.05,68.309,0.284155,0.719712
P29317,767643,2.36778e+06,2.92433e+06,32.0248,-84.7565,57.3356,867.339,97.3781,0.445801,0.818733
Q9UL77,7483.74,15578.9,15013.7,-1.56675,3.81064,-2.56332,91.9351,10.0084,0.200771,0.815248
O95221,136607,60648.3,118533,7.84661,19.0868,-1.91289,276.457,30.9702,0.244027,0.805085
P49789,29750.9,18019.6,24993.3,1.28214,0.357677,-0.828159,129.995,14.0526,0.207697,0.770568
O15213,441372,153765,416733,-10.0593,11.3917,3.5793,532.901,57.7654,0.259834,0.782469
P01765,18344,15150,10438.9,-25.4535,0.566524,3.83037,100.813,10.9942,0.179014,0.781235
P01605,19565.3,21771.2,9282.13,34.6062,15.6479,19.4954,101.021,11.0455,0.219587,0.796488
P67809,123026,730097,658169,-26.8923,-23.4016,-7.24093,291.99,29.6502,0.758525,0.876772
Q14050,40714.6,2.56031e+08,2.56012e+08,91.5376,-416.75,9.90078,598.733,43.7126,0.675579,0.932782
P04083,61249.4,137458,152392,-0.0700712,6.14123,-2.03245,300.432,32.7614,0.416249,0.795138
P01860,96396.2,423967,472106,-39.807,-145.124,78.5447,332.169,35.8129,0.500474,0.860397
P0DJI9,10594.5,21169,18760.4,-2.68472,-25.9633,15.8594,102.973,11.4859,0.208432,0.773344
P14543,1.56942e+06,1.07392e+07,1.16141e+07,155.487,-38.2971,53.7131,1126.98,110.424,0.858839,0.943412
P47929,13952.1,21543.3,19733.7,-19.924,-15.428,7.00335,116.043,12.5257,0.200407,0.789904
Q16520,6615.32,292593,297018,-1.07488,-3.47768,4.83155,105.868,11.8674,0.761211,0.939616
Q6P1K1,11852.9,41954.8,38377.4,28.768,174.904,-39.2998,126.066,13.9647,0.274083,0.799224
P41002,429064,1.72995e+06,1.5533e+06,60.8665,-50.3498,81.6988,708.697,74.0957,0.45586,0.836051
O75367,79947,365118,343323,-195.909,154.329,38.9176,321.823,33.7309,0.63296,0.872849
P07737,17899.5,20994.1,15076.1,27.7269,-0.642227,2.81241,119.719,13.0677,0.14631,0.767228
P07384,745446,647776,247116,15.2062,7.34895,18.7249,635.999,67.0499,0.271031,0.76688
Q14151,597669,1.79645e+06,1.60408e+06,71.8527,186.907,135.777,831.046,89.794,0.451097,0.777176
P22692,163508,640966,495835,-39.858,-7.37862,8.53021,231.725,25.0745,0.878877,0.925233
P48426,156717,117884,137639,9.10004,14.4741,34.0459,358.526,38.3097,0.183959,0.749479
P01599,22053.7,19732.1,9297.28,-41.529,-12.3105,-26.9697,101.526,10.8953,0.232319,0.801663
P03952,351835,251680,383899,-54.889,-268.083,103.44,556.757,60.4511,0.26686,0.772683
O95466,742520,1.47586e+06,1.13761e+06,5.39262,9.89604,33.3377,971.144,104.253,0.511503,0.809177
Q8N1N0,512793,2.3561e+06,1.89622e+06,15.1123,-40.9956,23.2861,513.5,54.3681,0.910251,0.917923
O95342,1.74263e+06,1.03795e+06,2.43529e+06,-0.584137,5.3232,39.2385,1155.11,124.628,0.413739,0.807475
Q8N130,253553,204803,304554,13.0712,10.2356,15.3699,515.009,55.6334,0.196612,0.744525
P09493,15937.5,1.11936e+06,1.12329e+06,11.0253,-23.916,22.2892,247.256,28.2514,0.508496,0.891776
Q2Y0W8,469902,3.11134e+06,2.95063e+06,-9.6159,114.657,-67.4325,985.48,109.611,0.405849,0.80713
Q13885,182034,135483,142414,-4.83908,37.3313,-11.806,387.103,42.3387,0.198253,0.747222
P62158,156920,204873,272095,2.11747,0.674091,2.60695,391.06,43.3955,0.246689,0.765934
O75636,57689.1,69565.2,74562.2,4.03391,-6.92044,-5.75398,255.878,27.026,0.162688,0.772295
P13671,398270,3.80958e+06,3.93041e+06,-54.3335,-10.2005,-13.5143,822.606,86.3387,0.426566,0.787139
P61586,48046.8,42695.3,27811.5,7.88134,16.6768,-6.82877,170.622,18.5883,0.193142,0.763897
P27169,103522,80919.1,110892,-45.4525,34.0925,-10.4856,309.5,32.8049,0.171341,0.74992
P01621,9336.5,21171.9,18976.4,-16.5557,-5.66765,-6.80212,99.9154,10.7528,0.219148,0.809885
P0CG05,6808.41,19337.4,20938.5,-3.17545,3.2111,-1.34638,89.7872,9.71497,0.240848,0.779085
Q92954,1.90622e+06,1.68734e+07,1.56677e+07,971.469,374.315,-955.082,1272.37,137.83,0.849078,0.877038
P06702,12991.8,38082.3,31480.2,1.55113,-3.24011,7.13368,99.0726,10.7175,0.28688,0.828323
P67936,9963.93,743067,744455,6.61959,-7.71579,18.3337,215.65,23.7691,0.382503,0.845908
O00187,216163,772710,698174,-0.411739,6.93421,0.546929,600.006,62.7714,0.325287,0.772382
P02654,13747.3,15532.9,3665.48,-2.08782,-5.64228,5.11902,70.3886,7.91229,0.379787,0.810493
Q7Z7G0,688197,891668,950349,8.05548,9.61507,-33.048,974.742,105.571,0.285379,0.764667
P02647,58783.6,180448,145907,-22.1842,5.28963,44.5455,238.175,26.6914,0.331981,0.843023
Q30201,166080,74780.1,156969,8.6977,-0.112297,-2.26712,308.281,33.6412,0.241788,0.796708
Q5VWG9,1.28033e+06,770770,957559,315.415,-184.173,176.986,814.928,86.6534,0.422544,0.790675
Q6P656,58498.7,87076.4,82126.5,-0.891602,-17.0725,1.44543,261.812,28.7756,0.150862,0.763153
P02786,404074,484791,320878,0.505557,5.25702,-2.89604,665.795,72.5054,0.19508,0.760144
P01825,10212.5,17399,15360.6,46.908,6.76966,-0.807602,100.298,11.0304,0.186879,0.792773
P68363,181911,130521,139036,-204.09,-41.6505,-33.4852,390.405,43.0234,0.154504,0.744501
P08571,226340,198075,72782.7,-8.63974,-12.5683,24.3713,321.481,34.542,0.366805,0.815309
P22891,169251,90674.5,150290,-9.716,-11.4459,23.3983,352.942,38.242,0.18488,0.747795
Q15758,154885,212196,214180,-5.63917,11.0852,-8.076,465.331,49.9214,0.156502,0.738525
Q5TB80,3.33453e+06,1.40341e+06,3.19798e+06,95.8983,178.483,66.773,1227.19,128.744,0.533644,0.78134
P35959,28340,149117,163100,16.5718,17.8384,28.4351,193.806,20.4857,0.315007,0.809781
Q14393,148901,2.64002e+06,2.65907e+06,22.2781,-44.7143,-10.1561,638.638,68.1876,0.540305,0.837259
O00512,2.63738e+06,1.02787e+06,3.0943e+06,21.0901,1.54912,-13.9405,1232.09,131.522,0.491389,0.782709
O94812,3.78618e+06,3.93375e+06,481518,-46.4489,-20.9383,47.0965,1044.67,112.296,0.458435,0.77759
P10745,1.21936e+06,831398,1.29434e+06,-36.2776,5.67933,-2.30621,1097.39,122.064,0.315966,0.745927
Q16348,340540,432444,363248,-44.811,18.37,7.06114,653.421,71.7966,0.176664,0.758336
P53677,132643,255970,321831,-23.2599,-15.2339,4.25815,371.409,41.0857,0.331515,0.79602
P08514,1.15083e+06,747481,1.70721e+06,9.00052,37.0716,-24.2058,897.097,101.597,0.372963,0.763787
P01023,1.19628e+06,2.22509e+06,1.72374e+06,80.8464,16.7013,-27.3407,1300.25,139.625,0.295495,0.769903
P17936,79090.4,418382,479352,21.7479,-22.0519,13.2235,260.391,28.7888,0.655776,0.89206
O15503,77339.2,72370,49766.2,100.03,12.1846,9.69145,238.475,26.0872,0.164366,0.775595
P22102,531323,880613,683740,-8.61821,2.28598,-6.69341,881.542,94.5948,0.207389,0.745009
P19652,57464.4,29416.5,49411,25.3354,23.0305,-9.32959,179.019,20.0168,0.216363,0.779554
Q9UL85,15630.3,7671.83,16060.3,-6.01156,-3.3297,-5.3249,93.0232,10.0758,0.174906,0.799523
P62937,19653.1,26527.9,24753.4,3.33116,-5.92039,3.83709,140.561,15.6734,0.157048,0.76029
P15311,687533,207902,600521,-47.0063,-23.9216,-25.1527,528.404,56.8182,0.286979,0.765187
P01880,971118,154018,879946,37.0559,-19.1898,-73.2064,340.868,37.8599,0.799062,0.902813
Q6IEV9,130600,61651.2,112218,-40.738,-3.13895,-7.73897,274.374,31.3732,0.224295,0.771366
P04792,39342.7,88624.6,100535,-7.9712,-3.11498,2.87393,181.532,19.0788,0.353179,0.858266
P62834,27643.2,33442.2,37154.6,11.3729,4.84614,12.6651,164.496,18.2789,0.163809,0.782617
O75356,103313,182633,169939,12.509,-27.6445,-1.81019,372.802,42.1467,0.237266,0.748087
P33764,9968.57,19823.4,23895.8,-1.50866,-2.54478,-0.549618,90.0977,9.82357,0.279171,0.815707
Q3LXA3,682304,143814,703291,-9.48855,-7.71586,-2.94344,483.49,52.1311,0.526336,0.844978
P07360,31990.9,37702.2,40438.1,-27.3224,3.08476,-12.5601,175.824,18.9075,0.157808,0.8042
P01610,22053.7,19732.1,9297.28,1.91988,0.582803,3.14985,101.526,10.8953,0.232319,0.801663
P02765,161653,77610.3,180665,-3.60998,41.4784,10.3923,316.944,34.1296,0.253447,0.760485
P35858,230061,645455,577262,40.8283,-12.1947,7.7118,512.695,55.2307,0.665338,0.884914
P01834,7276.39,20947.4,19035.3,3.60246,4.59059,0.175776,91.2795,9.99152,0.244158,0.801362
P06727,92405.6,302464,257597,13.3523,-4.72423,3.11624,343.537,37.8194,0.296757,0.773419
P00488,236970,713350,633385,31.6387,30.1657,-1.80303,646.01,71.8133,0.234225,0.757731
Q99467,287940,782182,723151,-2.88153,-43.0737,1.72778,567.739,62.194,0.642343,0.883556
P13224,46468.1,27926.3,36315,1.92878,-1.79718,7.05642,175.239,nan,0.174213,0.795676
P08185,173402,84937,158248,-4.45436,-6.69869,0.140061,352.812,39.0267,0.178326,0.77111
P02788,215821,520079,597127,8.87032,-34.8074,14.9983,612.392,67.5399,0.360996,0.772707
Q14CM0,1.38944e+06,1.50977e+07,1.42177e+07,525.045,94.8761,410.309,1199.23,122.992,0.738095,0.873702
O15355,165703,220377,244570,-56.3379,5.83897,0.00541717,465.797,49.7886,0.160474,0.740384
P07355,146260,60761.9,134872,6.2526,-10.4383,1.06679,295.71,33.6851,0.256649,0.774091
P29508,75693.6,170090,179173,-0.407766,-0.578868,-3.07472,343.729,37.523,0.183378,0.755955
P10720,8631.48,15096.4,17463.4,24.1403,-20.5705,-1.18426,90.0451,9.88632,0.249808,0.785731
P51795,632148,259700,655710,79.3139,1.28655,8.46357,660.503,72.6023,0.253697,0.790505
P01591,23689.9,26905.8,24194.3,-4.70171,12.2753,5.1503,140.341,15.4242,0.181682,0.777958
P0C7N1,119789,140371,63782.8,7.3252,-2.20193,-15.4952,282.676,31.5027,0.233487,0.762708
Q9HCC1,15417.2,8663.31,14927.2,-0.709017,3.24124,5.18802,95.8964,10.3629,0.15846,0.764919
P01771,19367.1,10526.9,16093.5,-14.3264,-2.69432,-7.7432,101.664,11.2136,0.176816,0.772623
P14618,283897,119991,298780,-4.34679,-9.31424,8.17542,457.58,51.1482,0.187871,0.781627
Q8IV77,998040,900362,179704,34.2516,-34.1134,27.4123,511.341,55.7397,0.564725,0.842181
O91087,30055.1,137463,153846,17.8769,-21.6415,15.2084,194.831,21.1413,0.323147,0.802791
P01619,9336.5,21171.9,18976.4,-8.11923,3.74988,16.5089,99.9154,10.7528,0.219148,0.809885
O00602,65182.7,76392.6,85823.5,12.3241,-7.60823,-15.0376,275.941,29.3488,0.150774,0.748008
Q08380,198440,281037,323716,3.14354,61.2663,22.5072,514.474,55.9158,0.227137,0.756789
Q6FI13,10635.2,93233.5,87907.9,-183.703,5.18907,10.0262,114.977,12.1894,0.434761,0.841283
P00751,291315,518000,496932,-33.0957,20.4112,26.2901,670.572,72.9777,0.209842,0.74175
P05106,753258,558254,1.13106e+06,5.82201,-37.7492,-8.80104,690.239,75.0834,0.322794,0.767919
P24593,113304,69090.2,75970.1,93.5318,-14.655,2.49052,249.008,26.1103,0.268741,0.78729
Q14EA6,1.03733e+06,117460,957749,-64.6447,-149.65,142.502,390.013,41.2496,0.655665,0.850058
P28566,70578.7,246094,242364,-51.4463,4.35138,6.41994,324.412,36.5753,0.247784,0.843377
P01614,11077.9,17034.6,21219.3,-6.93886,-0.39789,5.5173,105.457,11.4222,0.18596,0.785536
P30530,397229,600316,692313,31.4351,45.3218,-6.07786,791.331,87.0912,0.198837,0.724794
Q13418,310013,120062,276543,-7.56425,-2.08836,-16.6745,399.929,43.2193,0.33616,0.793356
Q8IV31,28040.8,141940,130389,4.76483,6.54017,-2.54354,194.327,20.9806,0.437638,0.890772
P04196,387116,1.73335e+06,1.86139e+06,-185.287,10.2415,59.1496,462.578,50.9798,0.884586,0.919368
P80748,18040.8,14246.5,11191.4,1.45023,0.0203407,-0.518309,98.7138,10.5088,0.187653,0.784308
Q8IU80,557327,698472,386006,-1.6281,-4.16707,-1.60238,719.452,78.847,0.244897,0.740189
P01743,10234.3,18284,15669.5,-0.132672,-0.420047,0.971508,101.831,11.0469,0.165709,0.775351
O43681,62811.4,147089,157455,47.6652,39.2661,-12.4633,304.391,33.0103,0.233824,0.766532
Q12816,1.03878e+06,1.1645e+06,896810,-61.4926,32.2448,-78.2418,1197.14,125.828,0.216969,0.75108
P10242,1.3375e+06,212306,1.22542e+06,-45.8933,66.1776,10.9204,571.309,61.355,0.686468,0.917662
P81605,10794.9,16342.3,12360.9,0.967906,-9.82815,4.71518,90.1791,9.74694,0.245504,0.813907
P01871,793566,78242.5,773424,-17.2653,33.0697,-16.0498,400.679,44.5387,0.596094,0.835856
P13591,1.33835e+06,451057,1.1408e+06,-356.003,173.496,-43.5812,762.748,82.9543,0.387302,0.804622
P10909,2.30168e+06,95097.1,2.33769e+06,0.763294,-24.0321,13.437,400.22,45.6728,0.840516,0.878224
P49913,33834,21625.1,37207.5,2.51848,-6.39784,-1.26491,147.742,16.154,0.236587,0.771298
P55103,227031,196706,124072,-65.175,-6.01241,-5.21305,307.224,33.2826,0.39331,0.826636
O75309,398537,6.13096e+06,5.88727e+06,-173.282,121.684,-70.67,736.107,84.0229,0.886932,0.914106
O14791,83996.2,437400,410175,-0.388919,-0.37212,-4.60021,345.921,38.3162,0.715182,0.886701
P06733,97924,149448,163147,13.5327,10.5944,3.13083,372.493,40.9015,0.165129,0.741709
P62987,21539.3,16321.4,14895.8,7.58572,6.29475,-16.99,112.562,12.3004,0.164666,0.785981
P31942,75767.3,199788,227377,-7.34324,-1.89968,1.72707,290.819,30.8142,0.34421,0.801279
Q58FG0,49983.3,238624,242512,15.3708,12.3163,1.94196,300.562,32.8319,0.289272,0.801595
P01780,10524.6,16145.7,19223.8,-5.18754,1.38838,2.15809,101.936,11.1757,0.196046,0.792988
O60518,747835,1.39642e+06,1.22667e+06,111.741,-107.552,29.5628,969.548,107.428,0.349868,0.780064
P10451,78324.9,146568,144475,-22.9068,2.62251,32.2067,276.95,29.4054,0.300947,0.769608
P27482,17412,30351,32805.2,-24.6977,-94.6555,19.9735,129.256,14.033,0.244085,0.780107
P00450,645310,767483,602577,-333.861,-44.3458,-52.1506,929.297,101.008,0.168611,0.737721
P05062,83682,114140,92909.6,12.0942,48.1223,31.2023,311.686,34.7933,0.165813,0.77762
P06732,142017,92427.6,173103,5.19471,-33.6437,2.31009,332.917,35.7977,0.26287,0.798059
P02745,39660.6,45679.3,51014.8,1.14988,-7.20507,4.12407,207.766,22.0206,0.137461,0.766272
Q2WGJ6,176946,499488,464687,-11.1366,49.811,10.7686,508.975,54.9346,0.267513,0.774163
Q7Z2D5,265711,3.23027e+06,3.37885e+06,-35.265,33.0956,2.02363,680.278,76.5369,0.420915,0.847629
P16827,702388,360329,592326,14.1715,28.52,-18.3806,751.729,80.8717,0.200484,0.754381
P49146,72560.5,181397,193355,-47.868,25.3703,-35.113,337.998,37.4717,0.236581,0.787279
P07195,61888.4,140590,129127,-1.66857,14.349,7.30869,290.934,32.1202,0.213615,0.746207
Q6Q788,26595,798114,794518,24.9185,37.8642,11.5382,316.86,33.9033,0.384504,0.843742
P14314,300330,1.68976e+06,1.42982e+06,-34.5405,26.3234,96.4383,466.868,50.2562,0.692645,0.862845
P01781,10524.6,16145.7,19223.8,1.89577,4.58012,-2.9873,101.936,11.1757,0.196046,0.792988
O95810,537608,114929,476953,33.4321,-26.8219,47.5274,366.028,39.8444,0.715209,0.916415
P23528,31890.2,35213.5,20116.6,-6.92374,-6.35229,-0.0709243,145.518,16.1593,0.183622,0.794374
Q13546,304984,407445,449677,6.38424,53.7716,18.9884,600.363,64.3621,0.293554,0.782369
P18065,154240,664396,778399,-2.68255,7.86523,3.75211,289.327,28.1164,0.759764,0.885343
P20062,117012,169926,159140,27.9864,-16.4124,2.29683,373.131,40.3122,0.209383,0.788384
P02776,13486.5,7464.24,14364.5,2.80459,-16.3453,2.1832,86.8039,9.56583,0.262939,0.808026
P12314,77497.6,298401,265305,-15.9852,24.5276,-1.49648,335.863,36.0361,0.595446,0.832953
O15446,441927,1.82334e+06,1.95864e+06,-9.82156,9.52055,10.0252,460.796,50.2124,0.881302,0.898938
Q1HVB8,812398,646159,957074,-23.8103,59.7654,25.9684,975.563,104.041,0.177141,0.734472
P35247,68027.8,194091,176481,13.4321,-21.226,-14.8157,324.198,33.8217,0.282423,0.801543
P01008,122098,187072,190713,-10.704,7.39915,22.7104,409.12,45.4696,0.157296,0.756325
P41968,124643,143045,62004.8,24.6609,-26.8331,7.37186,281.713,31.2031,0.243642,0.75685
P56856,31876.8,101365,97910.3,2.88824,7.19098,-2.34239,223.764,23.8161,0.229494,0.783199
P29083,538541,110565,493264,12.1564,-281.21,-35.9293,383.77,42.1317,0.603464,0.889505
P11274,4.10189e+06,763850,4.50385e+06,20.6375,-36.4367,35.5443,1117.71,120.176,0.611959,0.917237
Q14168,196735,479123,405862,-5.81954,-17.1906,-3.70387,509.087,54.441,0.326345,0.746968
Q15836,5503.66,181548,178416,-6.6891,-0.506628,-14.9148,88.0526,9.51729,0.786606,0.917519
O94985,6.71692e+06,4.01917e+06,2.93409e+06,-66.3635,13.2684,-341.923,887.256,90.9672,0.654597,0.898897
P56597,46640.7,31481.2,49938,2.29223,-5.97222,-4.49805,186.46,20.3444,0.180882,0.773431
P10211,1.94087e+06,393480,2.07842e+06,5.89654,34.4569,-32.3772,796.726,84.0094,0.397735,0.845591
P01876,887130,96641.4,832623,-7.78857,-13.6677,2.7013,308.218,31.9912,0.860852,0.888067
Q7Z601,94241.6,382287,362157,26.0067,-243.122,-46.9584,401.425,44.302,0.309916,0.797872
P02042,31100.4,16577,23086.3,9.94279,15.1603,6.36999,126.444,13.8732,0.189882,0.811831
Q86WS5,77262.3,128308,124603,-29.0601,1.18533,9.87372,303.622,32.7293,0.178276,0.741954
Q14515,509784,1.975e+06,2.41067e+06,896.484,-145.163,-114.928,579.26,63.2461,0.845261,0.916199
O43194,93985.1,246599,235093,-21.2416,-40.3978,-5.36445,399.56,43.2529,0.211038,0.763188
P27816,8.23198e+06,1.56535e+06,8.93574e+06,-307.987,305.606,733.719,1026.35,93.0752,0.797732,0.816816
P26038,700514,215066,599113,-7.71405,-18.7633,17.0114,516.688,55.0387,0.28831,0.764667
Q7KYR7,827430,279321,619180,0.217583,26.5366,5.969,470.322,55.4183,0.386231,0.808735
Q04724,256223,553449,541713,-7.26389,-26.417,-14.7892,650.757,70.6867,0.243991,0.743372
P05452,18012.4,102000,104385,-10.4295,17.082,10.5894,172.776,18.9228,0.298732,0.812184
Q16619,22353.4,45536.1,49686.4,-2.67162,45.0402,1.19183,172.451,18.6471,0.192172,0.813423
P01766,16530.1,10355.9,18176.2,-3.84217,-1.65532,-2.37554,104.331,11.4523,0.187237,0.800715
Q13201,2.21645e+06,1.01509e+06,1.78295e+06,-13.7953,114.637,-80.107,1082.91,119.652,0.354501,0.779139
P24855,71824.6,57829.8,62233.5,8.08523,9.67372,4.71267,243.789,26.2803,0.14633,0.762281
P21810,62878.5,174449,186161,-3.79007,3.02336,-10.7885,322.061,35.5919,0.235272,0.784577
P04220,310143,365734,114839,22.3207,47.2983,-8.09394,347.375,37.9013,0.445268,0.826529
Q5JY77,974138,1.19781e+06,1.37757e+06,16.119,-104.233,-62.7205,1221.08,133.769,0.18498,0.768269
P02766,15434.7,29514.2,23674.3,-10.9608,3.24458,0.221098,125.188,13.4056,0.233559,0.777042
Q03591,147017,492914,394695,44.9613,5.80336,0.569735,302.087,32.8887,0.687569,0.817063
P30304,215271,1.79019e+06,1.92332e+06,-88.9062,16.6151,-23.0219,477.12,54.1543,0.882827,0.909976
P07996,829939,1.01515e+06,921967,-948.167,595.505,-224.94,1040.96,113.028,0.216419,0.73519
P00740,98120.8,362932,351267,39.4874,-17.2149,9.32498,409.231,45.0073,0.276522,0.770599
P0CG04,6780.91,19302.8,20791.7,-4.06272,3.83903,0.728454,90.4558,9.66244,0.228449,0.791038
Q14247,456615,2.26656e+06,2.38334e+06,160.296,-11.1183,53.1411,494.055,51.935,0.883671,0.894834
P53609,116413,141528,86908.9,7.07924,8.4786,6.0714,326.563,35.7163,0.208636,0.776027
P01011,193884,172408,97407.5,-6.08332,24.2902,-4.40988,372.442,40.7821,0.172163,0.771264
P12273,28555.9,14865.8,35954.3,-8.68705,4.05921,3.41267,130.836,14.1131,0.210395,0.8022
P36955,101107,203654,187526,-21.3217,5.32431,-25.6283,367.36,40.3175,0.190743,0.759598
P02750,55986.6,222942,213328,-16.9911,6.2645,-12.9684,302.077,33.4576,0.423796,0.802768
P06239,227916,279863,169430,18.8941,6.1538,-0.324061,450.633,49.1059,0.267356,0.7859
O00167,236039,1.2999e+06,1.43056e+06,45.4203,17.5314,17.209,482.703,52.9682,0.826572,0.895215
P02746,58630.3,48487.6,53629.4,0.324081,-1.06224,-4.80677,221.892,24.1653,0.158905,0.764278
Q13868,149567,91219.5,100666,-3.52739,2.65068,-12.8627,259.751,27.5828,0.314167,0.79962
P14625,294408,1.03267e+06,1.09248e+06,-40.3562,61.1564,-12.8794,725.242,80.2105,0.266385,0.751282
P08575,1.04924e+06,9.27713e+06,9.00184e+06,30.1249,50.6337,48.3715,1184.52,122.99,0.858363,0.888165
P04206,9336.5,21171.9,18976.4,-8.11923,3.74988,16.5089,99.9154,10.7528,0.219148,0.809885
P03951,339168,373770,239884,-82.0675,-289.648,124.688,543.259,58.5513,0.262641,0.768695
P02655,17972.9,22788.3,10441.1,0.0568302,4.23053,-1.16703,87.3893,9.60372,0.253726,0.811449
P02708,870932,74638.9,883469,-12.86,54.2311,-9.79345,427.865,46.6351,0.404225,0.815631
Q2KHT3,2.97832e+06,604004,3.29001e+06,-30.7519,32.3473,-34.8037,930.054,99.0039,0.584366,0.905456
P00742,109461,363342,350970,-28.4486,8.53579,-4.8407,436.934,48.0558,0.251108,0.754077
Q07507,87531.3,25319.2,81751,-3.39315,2.65292,4.02991,186.619,20.4948,0.257696,0.792252
P55081,566244,140630,487385,-36.706,-43.8703,-35.9629,392.829,42.9119,0.622344,0.795153
P59665,7313.65,9914.17,11879.9,7.54083,4.99809,-4.92037,78.8198,8.62732,0.236504,0.780158
P01764,10391.9,18527.9,15172.3,0.0669587,29.2632,-2.2376,100.417,10.762,0.1895,0.768849
P02787,273420,463438,552769,4.47767,12.9795,-10.5765,602.535,66.9678,0.297484,0.774503
P01009,177964,165150,95103.5,-5.69366,-5.63885,19.6109,365.308,39.7676,0.169225,0.759033
P11597,104105,576708,537116,19.8894,11.323,-10.777,428.309,45.8568,0.271784,0.808034
P19827,402769,768627,854612,8.9758,31.4969,23.1352,814.202,88.9542,0.267308,0.746703
P02768,256341,352770,483048,16.0982,-1.64976,5.00418,534.838,58.3772,0.282782,0.781629
P08294,40832,51383.5,49950.5,3.38591,-15.4076,-11.1662,201.519,21.9295,0.183095,0.757846
Q86UX6,207014,201153,148799,4.84687,10.5591,10.831,431.498,47.3561,0.163111,0.741531
P55209,133097,224064,185119,-87.4998,-8.65159,23.8542,348.889,38.5429,0.197454,0.768843
B1N7B8,7523.52,14787.7,15259.5,0.809142,0.189258,1.45025,92.4248,10.1834,0.19181,0.77422
Q8IWV2,9.12166e+06,1.22304e+06,1.01002e+07,-29.4678,-76.2231,-0.337174,921.97,93.0421,0.939553,0.986702
P05109,15031.2,9427.16,19797.3,0.180871,7.08156,0.325054,83.3675,9.06153,0.246687,0.802577
P35443,1.31266e+06,1.59248e+06,541055,56.6165,-27.1862,189.13,851.25,92.3253,0.477927,0.799134
P07900,247112,1.12685e+06,1.18716e+06,-20.5996,13.401,-0.657752,658.247,70.6588,0.371199,0.777742
P11226,30919.7,97803.3,101227,-1.64145,18.3714,-16.0782,209.77,23.4963,0.201694,0.765627
Q02846,722544,1.36431e+06,989791,409.354,-899.203,65.4979,968.643,104.395,0.453728,0.791019
P15169,122706,169618,179437,-21.1145,2.19962,-16.6043,399.976,43.9088,0.15946,0.757789
Q00169,83534.7,57952,74243.4,6.98463,8.57379,-3.24054,240.254,26.7031,0.199592,0.775509
Q13426,121646,964680,996982,-20.9155,69.2491,-13.6486,294.773,32.0427,0.851465,0.888998
P08123,1.43259e+09,660453,1.43281e+09,-6.98773,60.5352,2904.56,1181.48,88.5541,0.966052,0.915207
P63241,50123.9,24653.2,65787.4,-15.4512,22.3945,26.4983,134.628,14.5081,0.46618,0.767148
B2RXH2,153601,219626,208762,-7.46445,-14.3479,35.7776,439.557,47.8019,0.165066,0.74052
P16070,265001,3.75931e+06,3.63384e+06,-47.3477,6.86825,-16.8468,657.449,67.6218,0.433682,0.860171
P01763,15810.7,18864.5,10134.5,2.14679,-2.99705,5.47769,100.84,10.9639,0.18924,0.784687
P69905,15651,26787.4,20298.6,-10.2399,6.72944,-1.44748,120.285,12.9125,0.192262,0.797112
P84077,34853.7,31721.6,27091.3,-10.919,-5.64649,4.21367,160.509,17.688,0.150802,0.776616
Q8IZP9,703879,1.43531e+06,975312,354.517,-823.674,63.7416,895.951,95.9186,0.562199,0.818862
Q12852,389678,1.05494e+06,926530,-12.2158,33.9974,-48.2813,761.897,82.0398,0.26124,0.767464
Q71U36,181212,136579,133097,-15.3516,11.7108,10.175,392.072,42.2176,0.156411,0.746008
P01833,1.34193e+06,270779,1.22106e+06,-6.04112,54.4449,3.26959,663.724,69.9819,0.350241,0.813474
P01859,85523.1,404214,455171,-31.6062,-82.2374,55.2505,284.574,30.3212,0.736358,0.869269
P48380,1.88593e+06,408244,1.6079e+06,-52.9434,-3.53923,85.1159,652.108,71.1564,0.553867,0.902202
P10599,13840.6,11084,9769.64,5.61587,-2.69387,-3.76651,92.2637,10.1794,0.19976,0.802655
O14734,73617.5,102999,97515.4,-22.7433,-4.31678,7.24522,278.137,29.9593,0.15894,0.7707
Q15113,126796,189668,221191,5.11449,-12.025,24.133,389.396,40.5158,0.256809,0.761001
P25705,116225,384381,359975,-18.5545,46.4299,-34.1796,478.054,51.4831,0.208216,0.783725
P01594,19565.3,21771.2,9282.13,13.3376,-8.9369,39.5574,101.021,11.0455,0.219587,0.796488
P12814,219267,1.14286e+07,1.13081e+07,148.708,41.8759,12.7625,799.188,83.0412,0.430873,0.863836
P48200,589266,439736,509748,-29.7743,13.1202,-8.75925,832.923,91.1751,0.143776,0.744432
Q15777,91391.4,72706.8,58947.7,5.13441,-0.381048,-11.9356,258.299,28.1929,0.176171,0.782665
P31151,18947.5,13614.2,11456.3,1.84623,4.18786,1.23995,88.1861,9.61495,0.246724,0.786632
O95486,620520,738568,843095,-14.5177,15.2778,-23.2087,961.642,105.056,0.160975,0.746784
Q86UC2,149682,1.03901e+06,1.09227e+06,96.2134,-38.8048,123.681,492.609,55.951,0.645295,0.79398
Q86YC2,844022,964178,1.05358e+06,-8.71589,-27.7427,20.8914,1064.31,113.021,0.205425,0.757747
P02652,4470.48,33087.7,30638.8,0.394424,0.625495,1.30097,86.8478,9.71478,0.292414,0.869719
O43889,121591,563241,631013,-17.6869,-87.0182,33.2058,354.274,38.1636,0.474525,0.871997
P17931,39950.4,49539,54392.1,-13.1383,-14.7735,1.48032,210.513,22.1108,0.156786,0.796531
Q16665,1.18014e+06,668500,914163,-205.151,131.214,-19.4268,732.492,77.2784,0.506675,0.825554
P20160,42446.1,46732.1,57847.2,-12.7076,-18.6173,-12.4511,216.949,23.1342,0.145653,0.762431
P78344,818023,666213,1.10728e+06,48.2246,-46.7283,5.1612,804.257,89.5854,0.617338,0.831486
P68871,31049.9,16751.1,22820.7,1.28193,-0.685582,-2.75845,125.388,13.5771,0.200653,0.802711
Q76632,14291.4,16632.5,17376.6,-6.37155,-0.212918,-2.71771,109.627,11.7453,0.166185,0.772231
P06276,296323,203835,343557,-18.7617,66.2229,-32.1241,533.81,57.9091,0.171586,0.754526
Q06033,416386,803213,953381,-37.8562,-419.68,2.75215,796.414,86.073,0.29313,0.787209
O15117,1.1074e+06,1.36892e+06,400184,36.964,55.7951,62.1699,692.21,74.0156,0.624691,0.865029
P00748,258161,443263,348744,-13.258,33.5504,17.537,535.59,57.236,0.245841,0.764692
P07437,179336,134213,137956,-30.8586,54.8954,-128.633,385.447,41.4556,0.151171,0.760806
Q16696,158041,242504,289911,-12.0881,11.8727,19.4285,439.112,48.6876,0.18078,0.749434
O43866,73532.2,204180,173376,15.8612,-52.6895,33.8074,301.174,32.2662,0.431263,0.799796
P02735,70204.9,42734.3,57567.8,-9.63509,8.22375,4.76509,206.609,22.3865,0.205828,0.793656
P13667,246723,502439,453040,32.7274,12.3,-194.782,573.468,62.801,0.218033,0.775994
P34096,22609.7,15851.4,28131,-4.92552,7.23511,6.00303,127.322,13.6545,0.191068,0.770289
P08709,108082,292195,301629,-30.248,-10.3554,36.4268,410.671,44.5369,0.209925,0.767389
P06311,9336.5,21171.9,18976.4,-8.11923,3.74988,16.5089,99.9154,10.7528,0.219148,0.809885
Q0IIM8,812571,1.20653e+06,1.62902e+06,37.1351,18.2663,23.6258,1001.82,112.362,0.463721,0.793595
P00739,265129,249880,68070.4,20.9152,17.8819,6.59357,306.241,33.224,0.29192,0.792013
P27918,460600,4.26225e+06,3.88731e+06,-nan,-nan,-nan,420.875,49.0264,0.934727,0.923739
Q14624,378508,970274,843199,67.5763,143.932,28.0538,824.451,87.7303,0.290319,0.826526
P27105,49176.8,182426,170322,2.90342,-4.18185,4.67252,253.418,27.9325,0.232022,0.774838
P48594,180322,173567,75978.3,3.22134,-0.32307,4.98144,344.41,37.7153,0.197722,0.781199
P07332,593163,399565,666039,-34.8456,8.36502,-3.71039,726.921,79.6594,0.241163,0.775087
P00746,58921.4,42095.3,46126.6,2.50193,35.6891,10.3372,212.584,23.1039,0.151104,0.758375
P01700,9906.83,14775.7,16874.1,0.165452,-3.07755,-1.51474,97.9944,10.5483,0.172756,0.782339
P03362,2.4327e+06,2.64721e+06,1.0456e+06,8.65838,55.5763,7.85002,1315.31,136.986,0.264003,0.746503
Q5BVD1,47722.6,41564.2,37361.2,38.222,-139.923,-98.5463,191.803,21.0441,0.168916,0.765226
P02749,115627,935361,845173,17.7903,7.20011,11.2802,306.837,33.0066,0.885572,0.905425
Q15485,62767.2,79888.2,74838.9,-1.75865,0.13282,2.94263,268.659,28.8644,0.138513,0.771405
P52452,375571,459608,487788,-1.66996,16.302,61.4748,701.887,79.5026,0.165156,0.744271
Q7Z3B3,726687,878445,937192,-50.3957,-42.2837,-2.82503,982.482,105.56,0.282331,0.756912
P49747,276335,702920,718121,-37.723,-93.3292,28.1474,661.059,71.4653,0.253911,0.758488
P01877,389799,45551.9,393132,-3.33831,-0.185791,1.26382,295.624,31.7136,0.553322,0.903196
P02743,45873.2,34696.6,47871.2,5.57215,-2.68506,-6.73773,194.918,21.6398,0.133777,0.768858
Q58FF7,177428,844498,784733,-48.3011,-2.25327,-13.6217,534.715,59.0705,0.428003,0.793979
P51884,50104.8,177164,185319,-2.22895,-9.95273,-8.50931,294.15,32.8425,0.252398,0.828722
P06744,194145,334203,324042,13.0453,17.5389,-7.32873,487.575,53.4215,0.239817,0.795151
P04003,295508,5.21153e+06,5.32879e+06,-123.647,-91.6673,9.11316,544.079,60.2438,0.880728,0.923816
P04279,576800,145221,516386,23.1798,120.417,0.399604,394.506,41.3868,0.565243,0.845863
Q6ZMV8,165476,1.00325e+06,1.08291e+06,221.013,280.022,116.056,457.951,49.116,0.333426,0.825241
Q8IZF2,1.23112e+06,1.96428e+06,1.42164e+06,-17.2945,24.1101,7.9193,1196.68,131.011,0.341738,0.769825
O43155,680268,465424,376990,42.5833,-8.10607,25.086,588.317,64.9166,0.269309,0.785229
Q709F0,491656,540699,311992,-74.2887,-10.9783,-8.42432,692.947,74.7374,0.207261,0.761746
P10646,122092,76054.1,99420.5,-0.974274,-33.0504,1.09564,277.09,30.4699,0.278517,0.764939
P55058,82508.5,570146,593550,12.5502,-2.97072,3.63219,431.927,47.2899,0.25544,0.819561
Q15303,1.63696e+06,1.7608e+06,2.29996e+06,-77.3067,2.08954,82.9011,1172.34,122.441,0.419623,0.796754
P28325,12476.8,31427.4,34900.9,4.47331,3.31467,3.81998,124.117,13.7777,0.215063,0.786874
P07225,609118,315282,483113,-30.3734,-3.56712,-56.6037,599.21,64.189,0.241864,0.769028
P04075,83214.8,113182,92847.7,1.01081,-3.19902,7.83233,311.843,33.8028,0.173156,0.776713
Q13972,1.01618e+06,2.15627e+06,1.80538e+06,27.7354,1.16141,-40.5898,1143.96,128.872,0.289254,0.771836
Q8IZS8,526574,1.34728e+06,1.15335e+06,3.96885,-3.19378,38.4002,970.208,105.781,0.262449,0.801409
P48059,57714.9,370330,352358,-18.6873,6.29603,21.7545,293.239,31.5212,0.390049,0.783285
P06435,236202,913323,1.02668e+06,-56.5462,-26.7027,70.5604,369.441,40.2682,0.751115,0.869486
O94900,404828,1.72731e+06,1.61763e+06,-66.2384,-69.3752,65.0129,469.771,51.0947,0.62021,0.879849
O76036,148962,169142,54118.5,17.5311,19.8581,-15.0868,270.318,29.5362,0.367638,0.788279
P18428,69203.3,609410,620161,7.05399,-25.3326,6.20239,419.266,45.3614,0.241064,0.794367
P63104,64617.7,90892.4,53492.8,-11.6512,-179.708,-5.85031,211.62,23.5539,0.407255,0.816611
P13929,96991.9,149164,162200,7.23094,13.9936,6.41777,371.772,41.239,0.161222,0.753517
Q29RF7,993456,2.76907e+06,3.01947e+06,-66.7976,62.4913,63.9327,1195.65,129.889,0.343371,0.765799
P07358,400095,205431,307108,80.4792,10.6335,-17.7282,522.287,56.2002,0.200281,0.757611
Q15555,83544.7,129830,104593,5.53412,21.0698,27.8355,290.66,31.8567,0.19767,0.746811
Q13797,1.27519e+06,1.88795e+06,820036,-63.253,30.3866,3.71373,904.094,98.5848,0.405827,0.808601
Q86UX7,200110,613842,634414,-3.02786,2.25587,-4.4443,593.193,64.2256,0.260309,0.764431
Q1HVF2,904542,270882,733042,-9.92516,51.5754,13.4259,538.602,58.0136,0.58729,0.893059
Q9HBI1,106706,178974,209247,10.5233,-3.91731,-13.4106,324.11,35.9756,0.270358,0.770543
Q7Z478,750488,2.43214e+06,2.63669e+06,141.582,517.087,128.725,1219.39,137.85,0.304057,0.754
P08238,255693,1.02246e+06,1.05117e+06,-16.2774,31.781,-22.7702,653.085,69.2196,0.350657,0.769371
P06681,276622,506848,494957,-70.1828,24.543,1.86049,657.166,71.8918,0.266432,0.752384
Q14157,694251,841505,897720,-25.552,43.4106,1.8886,946.097,99.1567,0.302118,0.752635
Q13790,44919.9,210625,199924,-9.52376,0.138299,-6.80534,285.753,31.4022,0.325241,0.798118
Q6ZN28,332429,1.79175e+06,1.8832e+06,147.835,-47.0877,80.098,764.999,83.6375,0.396134,0.848216
P19823,688879,546759,811691,-56.8309,-84.8782,18.5975,857.458,89.1799,0.327524,0.752965
P61626,16925.5,21808,26605.5,-4.37922,-4.21363,0.542359,127.094,13.9729,0.161937,0.793715
P09603,214128,1.1613e+06,1.06643e+06,-32.8497,-44.146,28.5253,491.858,52.61,0.587308,0.876099
Q6F5E8,1.23626e+06,2.47587e+06,1.86623e+06,20.3318,-120.345,-39.8273,1254.51,132.568,0.301556,0.73594
Q14D04,782206,717354,460697,-11.3544,11.7045,43.6377,739.623,78.8309,0.319315,0.777174
P33778,22501.5,56856.2,51471.2,19.8025,8.01819,-4.7963,112.987,12.5027,0.707069,0.941147
P35542,26019.3,20743.8,14147.3,1.85963,3.31932,2.93422,112.5,12.5603,0.228299,0.784723
P03950,27505.6,22779.5,15467.2,-1.06321,-7.38601,0.165495,125.643,13.5849,0.19119,0.799601
P24437,764229,477130,605845,-19.8089,2.21628,-62.144,694.297,77.7212,0.408098,0.771406
Q0P6H9,278805,550079,447149,244.257,161.492,61.2951,575.972,62.5624,0.366499,0.762509
P04632,50888.2,67801.3,64427.4,-2.84855,-3.12081,1.61866,225.74,24.1999,0.179835,0.768683
Q13642,202313,4.11331e+06,4.27965e+06,-99.0971,-57.6478,23.5906,291.549,32.623,0.968695,-nan
Q4W5G0,156772,530351,521107,67.7274,52.5862,-52.0503,470.871,50.7353,0.371732,0.783232
O14786,515973,812552,867553,-10.6196,-26.9349,-42.1241,824.487,90.1024,0.2528,0.74661
P06421,267990,389825,428262,24.0333,-53.6999,14.0565,570.163,63.7106,0.202466,0.751094
Q49A17,386041,211489,433968,50.8193,25.9661,11.5388,532.396,59.8295,0.262234,0.767473
P01625,9979.05,24077.7,26189.4,14.8496,5.41642,8.12252,106.149,11.5786,0.220815,0.826764
P02763,30063.6,55415.1,46668.8,-4.45486,-1.19113,1.5454,179.361,20.0422,0.214035,0.774332
P02774,252135,153051,277323,8.86199,-3.09612,8.74532,412.958,45.5269,0.254055,0.759051
Q02413,867155,6.27757e+06,5.99772e+06,-58.5912,-114.649,-62.3715,934.586,101.866,0.819895,0.926721
P24592,40917.4,53376.4,47694.2,-1.55476,12.3444,-7.85557,201.146,21.2792,0.152532,0.747492
Q13103,31539.3,44818,51478.2,13.1685,-7.90282,-10.7057,185.613,20.2605,0.17231,0.770151
P05667,14655.3,17293.6,18834,-4.24178,-4.44936,0.800615,112.536,11.9091,0.161356,0.787693
P61570,226660,1.2104e+06,1.15661e+06,88.6037,41.3042,-3.58122,600.851,66.5832,0.391307,0.778687
P61224,28471.3,35010.7,32532.1,14.265,-5.5604,1.64659,163.16,18.1234,0.175225,0.757475
P08603,1.72194e+06,1.04516e+07,1.13791e+07,-156.613,15.6156,-38.5686,1116.06,119.092,0.828287,0.941323
P33818,293462,457770,374136,22.4787,-15.9286,9.59559,581.65,61.2865,0.26151,0.769734
P04180,122031,160096,179197,-14.4449,0.356939,0.208239,390.241,43.0366,0.159894,0.746108
P02656,6182.66,28486.9,24303.6,-8.07199,-0.868061,3.84495,82.0644,9.10021,0.326184,0.831993
P01861,86478.5,453232,402965,-8.96149,4.67235,2.85585,285.011,30.344,0.698891,0.899535
P55056,13169.8,24781.2,22982.6,295.943,-482.715,-18.6423,109.893,12.1893,0.230403,0.792766
P01714,14354.6,17206.9,10823.4,-1.17975,-3.73801,-2.72947,96.434,10.3261,0.215733,0.788818
P06396,285816,505861,609953,-5.71089,23.6802,13.4371,680.27,75.5622,0.225239,0.737709
P52468,822326,594925,1.05214e+06,34.4973,22.9516,-17.0314,792.815,85.5279,0.579333,0.838886
P00558,203244,83655.8,191055,-5.8319,-13.1236,13.8814,357.976,39.1226,0.337888,0.77899
P30101,184176,413219,510362,17.0282,15.0078,17.2496,446.198,47.7075,0.517685,0.873491
P02649,111929,114409,52754.8,1.17039,1.03047,-0.474027,277.572,31.0941,0.185167,0.765367
P08567,82255.4,816869,856724,-43.1925,-20.2018,-16.1513,311.12,34.4298,0.775365,0.856273
P01620,15128.4,7635.33,15697.9,-0.291924,7.47273,-3.32895,92.4959,9.94744,0.180873,0.81712
Q96KN2,243761,134832,269374,-5.6984,1.362,-5.28939,444.994,49.879,0.21377,0.768506
Q12864,399346,6.10581e+06,6.35075e+06,33.3479,-16.2335,51.3698,748.822,86.9451,0.653604,0.854188
P55774,6665.35,11074.1,9277.35,4.14672,0.3075,0.164793,77.8282,8.65733,0.193968,0.820597
P12830,856869,6.30986e+06,5.81416e+06,21.6135,-153.827,259.807,795.402,85.2778,0.90761,0.913469
P33811,1.55178e+06,1.00405e+06,1.21998e+06,-21.2287,-32.2122,48.3152,1039.29,113.499,0.31507,0.766872
P40763,337022,880710,1.0366e+06,12.4057,36.7384,12.193,682.786,73.7678,0.382273,0.79391
P48740,1.77813e+06,404470,1.50399e+06,-9.39972,-84.3768,-95.2785,630.42,69.486,0.694861,0.945578
Q86VI4,145739,949530,846960,42.1279,115.31,-30.7024,337.076,35.1346,0.597549,0.906084
P05154,89512.7,188552,171033,-21.5957,22.6844,-15.3218,355.66,39.2166,0.205911,0.752779
P59533,153626,142844,62272.7,-0.241032,-0.0782632,-15.551,295.158,32.4028,0.240953,0.786883
O75427,170051,938450,915258,-75.0312,-81.762,1.02934,585.896,64.4996,0.412197,0.824687
P06280,171560,97689.9,190747,-0.572908,4.31937,27.5682,375.242,42.5386,0.171402,0.764368
P01597,20170.9,22076.7,9048.41,-0.256654,1.12779,2.72888,101.491,10.7675,0.224683,0.796192
P00736,395135,2.97312e+06,2.74934e+06,-21.4245,-19.7041,21.4108,638.756,71.477,0.527747,0.806163
P02790,105889,216726,222718,14.0231,25.0489,10.6864,400.771,43.6914,0.219035,0.786487
Q9BQL6,685270,230473,664548,-13.4257,37.1497,-17.9625,610.455,65.6031,0.290598,0.793751
P36896,220893,185294,162530,-2.99161,13.3573,1.82264,443.975,49.2306,0.180938,0.751413
P22303,268657,208717,310958,5.08969,20.9818,2.32519,538.071,59.0068,0.162069,0.754423
Q5XUX0,278314,300532,182932,2.47054,-3.05926,1.34546,474.756,51.253,0.228567,0.773064
P01042,260332,529227,434603,-23.4865,10.4152,21.843,572.804,59.4737,0.364522,0.766511
O75943,295800,452986,387135,-41.1287,34.1077,26.1496,606.583,66.2343,0.263089,0.76002
P02747,34939.3,54093,58196.1,-6.33716,3.57646,7.95561,207.04,22.0459,0.186443,0.77417
P30519,87466.2,109903,73990.3,-7.66881,4.17648,-5.07881,279.424,30.4258,0.173176,0.775512
P04070,208813,176979,123509,-20.7227,26.2393,15.4894,407.22,43.6781,0.183155,0.75768
O75976,1.41859e+06,1.01317e+07,9.48928e+06,148.548,-15.0662,-54.937,1237.3,131.369,0.81271,0.920219
O75915,20519.5,144413,145628,138.365,-47.0345,152.364,167.861,19.2131,0.404417,0.825378
O00391,513057,290638,563919,10.8435,17.2143,19.6437,655.405,70.4052,0.192014,0.730764
P00734,202388,463725,407226,1.82111,-9.07737,-24.3315,553.009,58.4613,0.256214,0.765757
Q6PJT7,493900,1.54886e+06,1.38709e+06,-31.4494,319.197,46.3356,655.406,69.6502,0.48204,0.854837
P02748,1.09219e+06,154919,993894,-20.1978,-36.594,-6.88717,494.088,54.7359,0.371848,0.751525
O95445,28529.6,47127,38625.3,3.40582,7.46911,5.73545,163.964,17.5574,0.187553,0.767078
P01613,19565.3,21771.2,9282.13,-2.35619,2.45087,-3.06235,101.021,11.0455,0.219587,0.796488
P01857,86904.2,403563,453106,-178.363,18.0276,-14.087,286.833,30.8469,0.689703,0.894502
Q13277,239434,41013,224575,3.16972,0.480155,-2.34039,255.997,28.4182,0.363618,0.832642
P49746,420628,1.2715e+06,1.16017e+06,172.982,-121.092,-230.026,835.146,90.3598,0.345551,0.794007
P25685,67027.6,419909,388530,-4.44236,4.90843,2.94097,303.347,32.8713,0.407112,0.841048
Q49A26,345509,213204,277195,-130.745,17.7816,-55.2689,484.695,52.335,0.196754,0.778015
O40626,434107,521297,182067,17.1788,-13.5454,16.227,442.988,48.4518,0.492366,0.877503
P02741,47535.9,35953.6,44966.5,3.2343,0.996006,-9.39017,195.907,21.5905,0.165813,0.745169
P01034,13059.1,32796.7,30751.5,2.24179,4.03076,-0.951543,125.299,13.5588,0.224304,0.791682
Q12778,773114,579948,483645,-25.7492,6.71281,49.7219,567.498,60.4825,0.666346,0.839066
Q15468,993758,1.3609e+06,1.207e+06,24.625,58.9603,42.3255,1154.46,123.736,0.223497,0.752909
P14923,804118,204426,840499,-10.0989,2.23918,19.9994,647.567,70.1157,0.249377,0.737362
Q76633,400762,476407,198472,36.1109,-35.817,28.83,460.633,47.9942,0.368983,0.77985
Q6ZWH5,3.35586e+06,777773,3.81201e+06,259.942,-63.0913,922.556,1046.32,112.372,0.56566,0.901585
Q4JDL3,103399,156051,166989,1.07096,-9.12346,-16.6511,373.055,41.4438,0.169564,0.762604
O00148,99711.9,201695,201381,-33.1426,20.5422,-9.22346,380.975,42.0333,0.230468,0.774912
P04004,323858,112460,293105,14.7122,16.1425,37.0506,423.508,46.7644,0.284903,0.797675
P04217,269710,1.71628e+06,1.94254e+06,19.1843,-1.59007,6.83101,437.052,46.9996,0.900483,0.958747
Q14973,77561.4,111462,94700.2,-13.6228,14.397,-0.610327,303.506,33.4714,0.16312,0.772253
Q71SY5,1.03832e+06,384698,1.26702e+06,-27.708,-71.1543,78.0981,653.125,70.4228,0.67858,0.866333
P02671,1.06457e+06,8.57941e+06,9.23011e+06,-75.9741,-2.56679,29.0755,756.831,91.4781,0.651039,0.833686
P62805,12168,39055,31770.7,-253.173,-12.3982,2.12046,91.312,9.74854,0.620219,0.824823
Q14520,137412,408004,392484,-14.935,8.24778,-13.1642,493.98,52.5188,0.26046,0.767148
Q86YT5,187431,295140,266194,43.8909,-52.9186,8.25775,503.267,56.0429,0.214487,0.745894
Q13093,152956,140285,129100,1.95545,-1.32317,13.7446,386.418,43.3395,0.133585,0.760457
O95847,131646,142271,74671.1,-8.33621,-4.41066,-23.5931,282.968,31.0874,0.217925,0.784185
P01593,19565.3,21771.2,9282.13,34.6062,15.6482,19.4956,101.021,11.0455,0.219587,0.796488
Q5VTR2,1.05987e+06,766966,1.32511e+06,-1.75608,-67.1751,28.8289,867.725,98.8508,0.571084,0.836119
P25311,59898.7,156050,142014,4.05933,-3.49049,8.62226,261.14,28.6688,0.293917,0.778383
Q4G0Z9,216926,625850,641803,-21.4794,-3.26013,-9.30498,604.257,66.0764,0.32829,0.767203
Q14003,702857,898265,420406,10.9094,-3.5089,26.8353,657.812,68.9566,0.356931,0.802672
P08393,467001,688174,993547,-41.3902,37.0261,-2.15174,656.866,71.5713,0.478661,0.759378
P0DJI8,20759,10881.4,18435.3,-2.07682,2.59306,1.85311,102.427,11.5318,0.292694,0.819964
P18206,1.20359e+06,752401,892429,-19.2262,-17.1387,-46.6546,984.223,107.131,0.270114,0.79074
P05546,268408,226702,162503,-59.2687,15.964,30.728,442.888,48.2381,0.183735,0.727831
O75052,402284,1.69706e+06,1.82401e+06,92.219,190.063,41.6181,463.012,48.1305,0.878094,0.912722
O60462,883538,944169,547923,-10.745,52.7102,36.2533,830.889,90.6377,0.253887,0.792813
P00738,75691.6,512867,498744,18.7615,26.6961,20.4246,357.613,38.9537,0.479076,0.850853
Q68CQ1,1.85174e+06,1.21266e+06,1.26477e+06,-118.408,-55.1872,107.746,1168.87,126.162,0.31385,0.779864
Q12794,114440,192231,181155,2.01339,19.748,0.3279,381.472,41.1594,0.203303,0.768853
P0C881,3.0188e+06,259033,3.09923e+06,41.095,-17.0192,-146.044,777.699,82.6428,0.496537,0.874943
Q13952,372832,1.54783e+06,1.63337e+06,6.12395,2.52647,-18.0072,414.712,44.2498,0.872421,0.896868
P05090,37509.9,30137.9,35251.6,0.489185,2.65731,2.55785,166.696,18.2343,0.185725,0.793464
Q16849,518029,1.30406e+06,1.40873e+06,-36.2556,66.0039,-123.651,861.807,92.7121,0.350249,0.796125
P61769,26590.8,27709.4,8076.43,-0.542223,-2.3234,2.66632,105.124,11.197,0.265746,0.830819
P35475,297694,235112,364746,131.238,317.464,623.512,567.433,61.7635,0.202389,0.757709
Q32P41,500123,139262,549726,6.10782,-4.68621,5.26259,456.157,50.8864,0.367398,0.80841
Q676U5,200261,412556,348919,4.51563,-37.1383,20.46,529.036,57.4505,0.200498,0.76961
Q5JZY3,518192,4.34418e+06,4.06153e+06,6.37327,13.6317,4.72406,890.276,97.0175,0.743495,0.848985
P20591,1.43907e+06,179762,1.47786e+06,-15.098,-37.6237,4.73894,590.643,64.1982,0.56503,0.863513
P0C7U3,202119,235552,77564.8,25.3937,103.334,-41.364,326.422,35.7916,0.301006,0.794491
P04899,80061.1,133811,171767,-16.966,7.95651,3.38652,314.93,33.6968,0.277967,0.761909
P31025,23742.5,32014.1,30479,-0.994891,1.61786,5.46196,153.11,16.6809,0.223798,0.787379
P20851,37887.4,552611,528204,-2.25931,2.46794,0.737697,228.305,24.4202,0.723798,0.920938
O14523,1.01828e+06,357482,1.25303e+06,-24.7456,-34.215,15.4946,621.616,67.2523,0.719632,0.896919
P02760,173780,157754,74115.7,-11.919,-20.8494,2.91379,306.611,33.2941,0.206695,0.760677
Q5SY16,500911,310164,416633,39.6093,-53.2464,-13.7229,631.828,69.5847,0.195161,0.740264
P04908,87813.6,93222.1,10795.6,32.51,-34.7175,-178.996,114.883,12.4475,0.517121,0.845119
P18827,108145,613531,690897,8.53576,-16.874,43.1105,274.428,-nan,0.592456,0.883402
P01019,125004,196505,226414,-12.4076,19.8048,10.9533,421.817,45.8244,0.151649,0.756775
P29401,143747,439770,465304,-7.21372,2.60937,8.36222,537.928,57.1299,0.263439,0.773475
P15884,236475,2.77034e+06,2.65215e+06,3.84521,8.10981,62.8314,583.073,57.5663,0.405392,0.821638
P61221,208076,365624,301708,-26.9503,-11.4395,-14.9524,531.719,58.4753,0.207949,0.769526
P01717,16483.7,10217.5,14901.8,-1.96268,-1.29559,-2.50457,97.0569,10.3449,0.206003,0.803253
Q86T90,484942,1.9278e+06,2.32973e+06,-21.2049,-82.2142,64.6184,504.147,53.3064,0.897163,0.901612
B1NKR3,669211,758512,878681,43.5637,-16.4988,-26.0886,972.421,106.196,0.168416,0.746522
P09871,190360,4.62079e+06,4.6779e+06,-162.955,30.8044,320.426,623.374,62.8931,0.807696,0.872627
Q9BXR6,224073,2.19344e+06,2.25253e+06,23.2416,88.8814,-19.1148,521.503,56.9813,0.684614,0.805057
P17275,755092,864497,153781,19.9214,8.78198,75.0984,302.302,31.1404,0.807842,0.882716
P05155,149086,229549,205414,31.0997,1.10956,7.80757,441.939,48.2882,0.169541,0.749979
P00747,532636,723321,381561,19.3552,14.8188,-13.6915,710.798,77.3654,0.239572,0.741449
P01617,20189.9,10849.2,16266.4,-0.363086,0.286072,1.05441,103.969,11.3416,0.178767,0.789664
P09211,42430.2,33596.2,54738.7,5.85316,-0.35395,2.73359,183.994,20.489,0.194615,0.79531
Q2VWP7,2.54096e+06,877052,2.02282e+06,133.874,-110.01,32.9959,1035.37,111.119,0.480382,0.80483
Q13217,121502,439910,415679,0.049093,10.1787,9.07013,435.875,48.3884,0.279784,0.768323
P22607,712244,1.02538e+06,516296,24.8825,7.31476,20.4753,714.595,78.4183,0.289326,0.738127
P27797,362038,304504,175581,40.0326,-33.8706,4.83816,372.383,40.5033,0.460014,0.840729
P36980,492213,59642.8,536920,10.7752,12.2806,5.61723,244.254,26.055,0.709602,0.853186
P25786,66865.3,88426,54039.9,6.20012,-0.401141,12.2373,229.578,25.2219,0.197743,0.766299
P08697,150448,247956,234319,-14.0644,-9.87158,4.72473,435.547,47.6285,0.18038,0.732059
P05019,59753.6,27317.7,54833.2,7.09751,-57.8645,-0.993446,168.456,18.1602,0.245178,0.799378
P04406,60666.1,117875,107340,0.51483,0.75413,-3.03668,285.996,31.1261,0.202122,0.740819
P01596,20243.9,22325.7,9225.49,-12.4926,-2.67205,-7.27569,101.864,10.8829,0.227953,0.806855
P02775,24353.6,13168.2,22445,1.58605,2.25106,1.41856,109.873,11.923,0.264285,0.776982
Q15617,117723,131244,55555.5,-1.47776,-0.0273792,-23.4581,274.508,30.7152,0.262608,0.805095
P68366,183580,137365,132218,-35.7058,125.088,43.5137,389.539,42.6927,0.165311,0.758565
Q13310,223743,492631,451917,9.03441,7.71742,12.2503,561.832,61.0097,0.215663,0.775733
P05067,1.18723e+06,363942,1.40778e+06,501.381,-5.75249,-264.146,685.651,73.5997,0.668188,0.847144
P01611,9027.63,21671.2,19773.8,-2.95619,-1.25066,0.599242,100.23,10.7363,0.240028,0.787347
P43652,265706,323565,460117,-6.00319,17.7584,35.6924,530.982,58.9796,0.27427,0.77567
Q6IQ26,660101,2.30925e+06,2.41348e+06,144.449,-90.9601,185.24,1150.6,127.297,0.347797,0.789396
